{
  "1": {
    "divisionId": 1,
    "divisionName": "Division 1",
    "divisionGroupId": 3,
    "divisionGroupName": "Gold Conference",
    "pointsForPromotion": 16,
    "pointsToHoldDivision": 9,
    "pointsToTitle": 16
  },
  "2": {
    "divisionId": 2,
    "divisionName": "Division 2",
    "divisionGroupId": 3,
    "divisionGroupName": "Gold Conference",
    "pointsForPromotion": 13,
    "pointsToHoldDivision": 8,
    "pointsToTitle": 15
  },
  "3": {
    "divisionId": 3,
    "divisionName": "Division 3",
    "divisionGroupId": 2,
    "divisionGroupName": "Silver Conference",
    "pointsForPromotion": 12,
    "pointsToHoldDivision": 8,
    "pointsToTitle": 14
  },
  "4": {
    "divisionId": 4,
    "divisionName": "Division 4",
    "divisionGroupId": 2,
    "divisionGroupName": "Silver Conference",
    "pointsForPromotion": 11,
    "pointsToHoldDivision": 7,
    "pointsToTitle": 13
  },
  "5": {
    "divisionId": 5,
    "divisionName": "Division 5",
    "divisionGroupId": 2,
    "divisionGroupName": "Silver Conference",
    "pointsForPromotion": 11,
    "pointsToHoldDivision": 7,
    "pointsToTitle": 13
  },
  "6": {
    "divisionId": 6,
    "divisionName": "Division 6",
    "divisionGroupId": 2,
    "divisionGroupName": "Silver Conference",
    "pointsForPromotion": 10,
    "pointsToHoldDivision": 7,
    "pointsToTitle": 12
  },
  "7": {
    "divisionId": 7,
    "divisionName": "Division 7",
    "divisionGroupId": 1,
    "divisionGroupName": "Bronze Conference",
    "pointsForPromotion": 9,
    "pointsToHoldDivision": 6,
    "pointsToTitle": 11
  },
  "8": {
    "divisionId": 8,
    "divisionName": "Division 8",
    "divisionGroupId": 1,
    "divisionGroupName": "Bronze Conference",
    "pointsForPromotion": 8,
    "pointsToHoldDivision": 5,
    "pointsToTitle": 10
  },
  "9": {
    "divisionId": 9,
    "divisionName": "Division 9",
    "divisionGroupId": 1,
    "divisionGroupName": "Bronze Conference",
    "pointsForPromotion": 7,
    "pointsToHoldDivision": 4,
    "pointsToTitle": 9
  },
  "10": {
    "divisionId": 10,
    "divisionName": "Division 10",
    "divisionGroupId": 1,
    "divisionGroupName": "Bronze Conference",
    "pointsForPromotion": 6,
    "pointsToHoldDivision": 0,
    "pointsToTitle": 8
  }
}